{
  "pageNo": 1,
  "itemsPerPage": 30,
  "totalCount": 132,
  "offset": 0,
  "limit": 30,
  "lastPage": 5,
  "hasNext": true,
  "hasPrev": false,
  "pages": [
    {
      "id": 238,
      "vendor_id": 28,
      "vendorName": "OmarketTeam",
      "name": "[삼성전자] 갤럭시 A53 3종 (자급제)",
      "description": "더 빠르게 만나는 갤럭시 A53(자급제)",
      "thumbnail": "https://s3.ap-northeast-2.amazonaws.com/media.yagom-academy.kr/training-resources/28/20221120/d356483d68e511eda9179dd14056bf58_thumb.jpeg",
      "currency": "KRW",
      "price": 599500.0,
      "bargain_price": 534500.0,
      "discounted_price": 65000.0,
      "stock": 60,
      "created_at": "2022-11-20T00:00:00",
      "issued_at": "2022-11-20T00:00:00"
    },
    {
      "id": 237,
      "vendor_id": 28,
      "vendorName": "OmarketTeam",
      "name": "미국산 애플청포도 500g (오톰크리스피)",
      "description": "수입포도계의 샤인머스켓! 아삭아삭한 식감이 일품인 수입청포도",
      "thumbnail": "https://s3.ap-northeast-2.amazonaws.com/media.yagom-academy.kr/training-resources/28/20221120/bcfa199a68e511eda917fd55a03fd502_thumb.jpeg",
      "currency": "KRW",
      "price": 9900.0,
      "bargain_price": 9050.0,
      "discounted_price": 850.0,
      "stock": 0,
      "created_at": "2022-11-20T00:00:00",
      "issued_at": "2022-11-20T00:00:00"
    },
    {
      "id": 236,
      "vendor_id": 28,
      "vendorName": "OmarketTeam",
      "name": "[종로 평원숯불갈비] 돼지 물갈비 515g",
      "description": "달짝지근하게 양념한 돼지갈비와 식감 좋은 은이버섯 한송이가 담겨 있는 상품입니다.",
      "thumbnail": "https://s3.ap-northeast-2.amazonaws.com/media.yagom-academy.kr/training-resources/28/20221120/abf2f81768e511eda91763b3ff00c6ec_thumb.jpeg",
      "currency": "KRW",
      "price": 12200.0,
      "bargain_price": 8800.0,
      "discounted_price": 3400.0,
      "stock": 142,
      "created_at": "2022-11-20T00:00:00",
      "issued_at": "2022-11-20T00:00:00"
    },
    {
      "id": 235,
      "vendor_id": 28,
      "vendorName": "OmarketTeam",
      "name": "씻어나온 완전미 고시히카리 쌀 4kg",
      "description": "간편하게 만나는 쫀득한 맛(4kg/1포)",
      "thumbnail": "https://s3.ap-northeast-2.amazonaws.com/media.yagom-academy.kr/training-resources/28/20221120/90e883a468e511eda917cf2c9ab59b5e_thumb.jpeg",
      "currency": "KRW",
      "price": 20900.0,
      "bargain_price": 19400.0,
      "discounted_price": 1500.0,
      "stock": 42,
      "created_at": "2022-11-20T00:00:00",
      "issued_at": "2022-11-20T00:00:00"
    },
    {
      "id": 234,
      "vendor_id": 28,
      "vendorName": "OmarketTeam",
      "name": "메밀 비빔막국수 (2인분)",
      "description": "매콤하게 즐기는 한 그릇",
      "thumbnail": "https://s3.ap-northeast-2.amazonaws.com/media.yagom-academy.kr/training-resources/28/20221120/7f9787e168e511eda917e15e8623be88_thumb.jpeg",
      "currency": "KRW",
      "price": 10500.0,
      "bargain_price": 10000.0,
      "discounted_price": 500.0,
      "stock": 10,
      "created_at": "2022-11-20T00:00:00",
      "issued_at": "2022-11-20T00:00:00"
    },
    {
      "id": 233,
      "vendor_id": 28,
      "vendorName": "OmarketTeam",
      "name": "호주산 목초육 안심 스테이크 250g (냉장)",
      "description": "목초를 먹이며 자연 방목해, 기름기가 다소 적은 호주산 소 안심이에요. 취향에 맞게 다양한 굽기의 스테이크를 즐겨보세요.",
      "thumbnail": "https://s3.ap-northeast-2.amazonaws.com/media.yagom-academy.kr/training-resources/28/20221120/f305023e68e311eda91721bf06a21d71_thumb.jpeg",
      "currency": "KRW",
      "price": 22900.0,
      "bargain_price": 19560.0,
      "discounted_price": 3340.0,
      "stock": 10,
      "created_at": "2022-11-20T00:00:00",
      "issued_at": "2022-11-20T00:00:00"
    },
    {
      "id": 232,
      "vendor_id": 28,
      "vendorName": "OmarketTeam",
      "name": "[델리치오] 호주산 목초육 안심 스테이크 250g (냉장)",
      "description": "목초를 먹이며 자연 방목해, 기름기가 다소 적은 호주산 소 안심이에요. 취향에 맞게 다양한 굽기의 스테이크를 즐겨보세요.",
      "thumbnail": "https://s3.ap-northeast-2.amazonaws.com/media.yagom-academy.kr/training-resources/28/20221120/6170836b68e011eda91715644cacdad8_thumb.jpeg",
      "currency": "KRW",
      "price": 22900.0,
      "bargain_price": 19400.0,
      "discounted_price": 3500.0,
      "stock": 10,
      "created_at": "2022-11-20T00:00:00",
      "issued_at": "2022-11-20T00:00:00"
    },
    {
      "id": 231,
      "vendor_id": 28,
      "vendorName": "OmarketTeam",
      "name": "상품 입니다 상품",
      "description": "상품",
      "thumbnail": "https://s3.ap-northeast-2.amazonaws.com/media.yagom-academy.kr/training-resources/28/20221120/fbf2a8c268ca11eda917bb0e850e9103_thumb.jpeg",
      "currency": "KRW",
      "price": 30000.0,
      "bargain_price": 29000.0,
      "discounted_price": 1000.0,
      "stock": 0,
      "created_at": "2022-11-20T00:00:00",
      "issued_at": "2022-11-20T00:00:00"
    },
    {
      "id": 230,
      "vendor_id": 28,
      "vendorName": "OmarketTeam",
      "name": "상품 123",
      "description": "상품입니다 상품!",
      "thumbnail": "https://s3.ap-northeast-2.amazonaws.com/media.yagom-academy.kr/training-resources/28/20221120/a89eb82b68ca11eda917db60b5d19d75_thumb.jpeg",
      "currency": "KRW",
      "price": 12900.0,
      "bargain_price": 12000.0,
      "discounted_price": 900.0,
      "stock": 0,
      "created_at": "2022-11-20T00:00:00",
      "issued_at": "2022-11-20T00:00:00"
    },
    {
      "id": 229,
      "vendor_id": 28,
      "vendorName": "OmarketTeam",
      "name": "상품",
      "description": "상품입니다. 상품",
      "thumbnail": "https://s3.ap-northeast-2.amazonaws.com/media.yagom-academy.kr/training-resources/28/20221120/2afd497868c211eda917f5acc682bead_thumb.jpeg",
      "currency": "KRW",
      "price": 930000.0,
      "bargain_price": 929900.0,
      "discounted_price": 100.0,
      "stock": 10,
      "created_at": "2022-11-20T00:00:00",
      "issued_at": "2022-11-20T00:00:00"
    },
    {
      "id": 228,
      "vendor_id": 1,
      "vendorName": "soobak1234",
      "name": "LovelyGamJa",
      "description": "Cute k JabChae",
      "thumbnail": "https://s3.ap-northeast-2.amazonaws.com/media.yagom-academy.kr/training-resources/1/20221120/e57e4155688111eda917fbfb6c87ff46_thumb.png",
      "currency": "KRW",
      "price": 100000.0,
      "bargain_price": 100000.0,
      "discounted_price": 0.0,
      "stock": 0,
      "created_at": "2022-11-20T00:00:00",
      "issued_at": "2022-11-20T00:00:00"
    },
    {
      "id": 227,
      "vendor_id": 1,
      "vendorName": "soobak1234",
      "name": "동까스",
      "description": "돈가스 좋아하세요~?",
      "thumbnail": "https://s3.ap-northeast-2.amazonaws.com/media.yagom-academy.kr/training-resources/1/20221120/72efee42688111eda9179542c58baec2_thumb.jpeg",
      "currency": "KRW",
      "price": 10000.0,
      "bargain_price": 10000.0,
      "discounted_price": 0.0,
      "stock": 0,
      "created_at": "2022-11-20T00:00:00",
      "issued_at": "2022-11-20T00:00:00"
    },
    {
      "id": 226,
      "vendor_id": 1,
      "vendorName": "soobak1234",
      "name": "Cookie",
      "description": "cookie",
      "thumbnail": "https://s3.ap-northeast-2.amazonaws.com/media.yagom-academy.kr/training-resources/1/20221120/94e76b5f687511eda917f922af3c9882_thumb.jpg",
      "currency": "KRW",
      "price": 2000.0,
      "bargain_price": 2000.0,
      "discounted_price": 0.0,
      "stock": 0,
      "created_at": "2022-11-20T00:00:00",
      "issued_at": "2022-11-20T00:00:00"
    },
    {
      "id": 224,
      "vendor_id": 1,
      "vendorName": "soobak1234",
      "name": "초딩불주먹",
      "description": "초딩불주먹초딩불주먹초딩불주먹초딩불주먹초딩불주먹",
      "thumbnail": "https://s3.ap-northeast-2.amazonaws.com/media.yagom-academy.kr/training-resources/1/20221119/7926dc09682211eda917396cdf4b8df6_thumb.jpg",
      "currency": "KRW",
      "price": 10000.0,
      "bargain_price": 10000.0,
      "discounted_price": 0.0,
      "stock": 0,
      "created_at": "2022-11-19T00:00:00",
      "issued_at": "2022-11-19T00:00:00"
    },
    {
      "id": 221,
      "vendor_id": 1,
      "vendorName": "soobak1234",
      "name": "맥북",
      "description": "2023",
      "thumbnail": "https://s3.ap-northeast-2.amazonaws.com/media.yagom-academy.kr/training-resources/1/20221119/7587b65067ab11eda9174d81d4e6fb14_thumb.jpg",
      "currency": "KRW",
      "price": 4000000.0,
      "bargain_price": 3999500.0,
      "discounted_price": 500.0,
      "stock": 10,
      "created_at": "2022-11-19T00:00:00",
      "issued_at": "2022-11-19T00:00:00"
    },
    {
      "id": 220,
      "vendor_id": 1,
      "vendorName": "soobak1234",
      "name": "맥북",
      "description": "맥북프로",
      "thumbnail": "https://s3.ap-northeast-2.amazonaws.com/media.yagom-academy.kr/training-resources/1/20221119/49942fad67ab11eda917bfd76839392c_thumb.jpg",
      "currency": "KRW",
      "price": 4000000.0,
      "bargain_price": 3999500.0,
      "discounted_price": 500.0,
      "stock": 1234567,
      "created_at": "2022-11-19T00:00:00",
      "issued_at": "2022-11-19T00:00:00"
    },
    {
      "id": 219,
      "vendor_id": 1,
      "vendorName": "soobak1234",
      "name": "개껌",
      "description": "간식",
      "thumbnail": "https://s3.ap-northeast-2.amazonaws.com/media.yagom-academy.kr/training-resources/1/20221119/4505271a67aa11eda91711324134253d_thumb.jpg",
      "currency": "KRW",
      "price": 1000.0,
      "bargain_price": 900.0,
      "discounted_price": 100.0,
      "stock": 1,
      "created_at": "2022-11-19T00:00:00",
      "issued_at": "2022-11-19T00:00:00"
    },
    {
      "id": 217,
      "vendor_id": 1,
      "vendorName": "soobak1234",
      "name": "맥북",
      "description": "맥북프로",
      "thumbnail": "https://s3.ap-northeast-2.amazonaws.com/media.yagom-academy.kr/training-resources/1/20221119/a1d7bc2467a811eda9174d837a5209e7_thumb.jpg",
      "currency": "KRW",
      "price": 4000000.0,
      "bargain_price": 3999500.0,
      "discounted_price": 500.0,
      "stock": 1234567,
      "created_at": "2022-11-19T00:00:00",
      "issued_at": "2022-11-19T00:00:00"
    },
    {
      "id": 216,
      "vendor_id": 1,
      "vendorName": "soobak1234",
      "name": "개껌",
      "description": "간식",
      "thumbnail": "https://s3.ap-northeast-2.amazonaws.com/media.yagom-academy.kr/training-resources/1/20221119/b6dc1fc167a411eda91795c7ef1189d7_thumb.jpg",
      "currency": "KRW",
      "price": 1000.0,
      "bargain_price": 900.0,
      "discounted_price": 100.0,
      "stock": 1,
      "created_at": "2022-11-19T00:00:00",
      "issued_at": "2022-11-19T00:00:00"
    },
    {
      "id": 211,
      "vendor_id": 28,
      "vendorName": "OmarketTeam",
      "name": "에어팟",
      "description": "에어팟 3",
      "thumbnail": "https://s3.ap-northeast-2.amazonaws.com/media.yagom-academy.kr/training-resources/28/20221118/599ae460672411eda9175d6434070ab0_thumb.jpeg",
      "currency": "KRW",
      "price": 150000.0,
      "bargain_price": 130000.0,
      "discounted_price": 20000.0,
      "stock": 1,
      "created_at": "2022-11-18T00:00:00",
      "issued_at": "2022-11-18T00:00:00"
    },
    {
      "id": 208,
      "vendor_id": 29,
      "vendorName": "wongbing",
      "name": "테스트",
      "description": "Post테스트용",
      "thumbnail": "https://s3.ap-northeast-2.amazonaws.com/media.yagom-academy.kr/training-resources/29/20221118/5d06f05766db11eda917a9d79f703efd_thumb.png",
      "currency": "KRW",
      "price": 1200.0,
      "bargain_price": 1200.0,
      "discounted_price": 0.0,
      "stock": 3,
      "created_at": "2022-11-18T00:00:00",
      "issued_at": "2022-11-18T00:00:00"
    },
    {
      "id": 196,
      "vendor_id": 13,
      "vendorName": "mimm123",
      "name": "Test",
      "description": "Test Test Test Test Test Test Test Test Test Test Test Test Test Test Test Test Test Test Test Test Test Test Test Test Test Test Test Test Test Test Test Test Test Test ",
      "thumbnail": "https://s3.ap-northeast-2.amazonaws.com/media.yagom-academy.kr/training-resources/13/20221116/2576dce165c611eda917ed1dc9e4a299_thumb.jpeg",
      "currency": "KRW",
      "price": 300000000,
      "bargain_price": 100000000,
      "discounted_price": 200000000,
      "stock": 1,
      "created_at": "2022-11-16T00:00:00",
      "issued_at": "2022-11-16T00:00:00"
    },
    {
      "id": 191,
      "vendor_id": 29,
      "vendorName": "wongbing",
      "name": "미라클모닝",
      "description": "상쾌한 아침을 맞이할 수 있다 ",
      "thumbnail": "https://s3.ap-northeast-2.amazonaws.com/media.yagom-academy.kr/training-resources/29/20221115/f1d0321e64a811eda9177783e6c1a928_thumb.png",
      "currency": "KRW",
      "price": 12000.0,
      "bargain_price": 11950.0,
      "discounted_price": 50.0,
      "stock": 12,
      "created_at": "2022-11-15T00:00:00",
      "issued_at": "2022-11-15T00:00:00"
    },
    {
      "id": 190,
      "vendor_id": 29,
      "vendorName": "wongbing",
      "name": "미라클모닝",
      "description": "상쾌한 아침을 맞이할 수 있",
      "thumbnail": "https://s3.ap-northeast-2.amazonaws.com/media.yagom-academy.kr/training-resources/29/20221115/afd1bbdb648111eda9173d2b312611fc_thumb.png",
      "currency": "KRW",
      "price": 12000.0,
      "bargain_price": 11950.0,
      "discounted_price": 50.0,
      "stock": 120,
      "created_at": "2022-11-15T00:00:00",
      "issued_at": "2022-11-15T00:00:00"
    },
    {
      "id": 186,
      "vendor_id": 11,
      "vendorName": "borysarang",
      "name": "블랙매지션",
      "description": "마라탕",
      "thumbnail": "https://s3.ap-northeast-2.amazonaws.com/media.yagom-academy.kr/training-resources/11/20221110/aa84877e610b11eda917ed59733c203d_thumb.jpeg",
      "currency": "USD",
      "price": 15000.0,
      "bargain_price": 15000.0,
      "discounted_price": 0.0,
      "stock": 33,
      "created_at": "2022-11-10T00:00:00",
      "issued_at": "2022-11-10T00:00:00"
    },
    {
      "id": 185,
      "vendor_id": 11,
      "vendorName": "borysarang",
      "name": "푸른눈의 백룡",
      "description": "공격력 제일쎔",
      "thumbnail": "https://s3.ap-northeast-2.amazonaws.com/media.yagom-academy.kr/training-resources/11/20221110/9943432b610b11eda917f766a0e9391b_thumb.jpeg",
      "currency": "KRW",
      "price": 10000.0,
      "bargain_price": 10000.0,
      "discounted_price": 0.0,
      "stock": 1,
      "created_at": "2022-11-10T00:00:00",
      "issued_at": "2022-11-10T00:00:00"
    },
    {
      "id": 184,
      "vendor_id": 11,
      "vendorName": "borysarang",
      "name": "궁극의 푸른눈의 백룡",
      "description": "공격력 제일쎔",
      "thumbnail": "https://s3.ap-northeast-2.amazonaws.com/media.yagom-academy.kr/training-resources/11/20221110/75224cc8610b11eda91713e7b38dc961_thumb.jpeg",
      "currency": "KRW",
      "price": 10000.0,
      "bargain_price": 10000.0,
      "discounted_price": 0.0,
      "stock": 1,
      "created_at": "2022-11-10T00:00:00",
      "issued_at": "2022-11-10T00:00:00"
    },
    {
      "id": 183,
      "vendor_id": 11,
      "vendorName": "borysarang",
      "name": "궁극의 푸른눈의 백룡",
      "description": "공격력 제일쎔",
      "thumbnail": "https://s3.ap-northeast-2.amazonaws.com/media.yagom-academy.kr/training-resources/11/20221110/6a665835610b11eda917c7be716f32c8_thumb.jpeg",
      "currency": "KRW",
      "price": 10000.0,
      "bargain_price": 10000.0,
      "discounted_price": 0.0,
      "stock": 1,
      "created_at": "2022-11-10T00:00:00",
      "issued_at": "2022-11-10T00:00:00"
    },
    {
      "id": 182,
      "vendor_id": 11,
      "vendorName": "borysarang",
      "name": "라면인건",
      "description": "t1t1t1",
      "thumbnail": "https://s3.ap-northeast-2.amazonaws.com/media.yagom-academy.kr/training-resources/11/20221110/b983491260fb11eda9178d8e68eeb7c2_thumb.jpeg",
      "currency": "KRW",
      "price": 10000.0,
      "bargain_price": 9500.0,
      "discounted_price": 500.0,
      "stock": 1234567,
      "created_at": "2022-11-10T00:00:00",
      "issued_at": "2022-11-10T00:00:00"
    },
    {
      "id": 180,
      "vendor_id": 11,
      "vendorName": "borysarang",
      "name": "라면인건",
      "description": "t1t1t1",
      "thumbnail": "https://s3.ap-northeast-2.amazonaws.com/media.yagom-academy.kr/training-resources/11/20221110/0fb6a84c60fb11eda917b922542ec89d_thumb.jpeg",
      "currency": "KRW",
      "price": 10000.0,
      "bargain_price": 9500.0,
      "discounted_price": 500.0,
      "stock": 1234567,
      "created_at": "2022-11-10T00:00:00",
      "issued_at": "2022-11-10T00:00:00"
    }
  ]
}
